code_Pays,Pays
1,Maroc
2,Egypte
3,Nigeria
4,Ghana
5,Tanzanie
6,Kenya
7,Afrique du sud
8,Swaziland
9,Lesotho
10,Malawi
11,Zambie
12,Russie
13,Kazakhstan
14,Afghanistan
15,Pakistan
16,Liban
17,Mexique
18,Colombie
19,Bresil
20,Jamaique
21,Thailande
22,Cambodge
23,Indonesie
24,Philippines
25,Inde
26,Nepal
27,Sri Lnaka
28,Papoasie
29,Nouvelle_guinee
30,Fidji
