code_pays,pays
1,Albanie
2,Barbade
3,Birmanie
4,Bostswana
5,Burkina Faso
6,Caimans
7,Cambodge
8,Ghana
9,Jamaique
10,Maroc
11,Maurice
12,Nicaragua
13,Ouganda
14,Panama
15,Senegal
16,Syrie
17,Yemen
18,Zimbabwe
